Id,SalePrice
1461,117039.209596
1462,153442.028067
1463,184328.00403
1464,197696.282816
1465,195804.259078
1466,172556.172555
1467,177959.765835
1468,162737.829023
1469,192870.592195
1470,119674.879395
1471,178978.158722
1472,96482.6744048
1473,97309.0686865
1474,145977.380606
1475,109047.036012
1476,354016.164316
1477,249466.7174
1478,292317.978508
1479,288477.897444
1480,502918.595875
1481,333709.002037
1482,215411.775007
1483,176813.827851
1484,158899.119174
1485,188482.436958
1486,193783.440443
1487,327364.591463
1488,231839.959393
1489,191462.815311
1490,246631.155447
1491,194675.07383
1492,93267.8692276
1493,179455.433473
1494,292336.726776
1495,294118.623959
1496,232156.508724
1497,177706.946228
1498,171848.663954
1499,160481.131094
1500,156947.689463
1501,176601.065339
1502,141751.005743
1503,298121.674492
1504,241318.530008
1505,227965.72997
1506,195473.694461
1507,247322.997564
1508,199970.062894
1509,159501.419156
1510,145071.8406
1511,158763.11105
1512,175391.794968
1513,145079.583054
1514,155644.271358
1515,193071.636908
1516,150768.368953
1517,171322.92596
1518,129338.381605
1519,208762.776428
1520,128694.936789
1521,131326.846634
1522,176282.762691
1523,111601.882465
1524,127675.780504
1525,118766.508907
1526,110709.271357
1527,105988.507801
1528,140683.465012
1529,153335.948155
1530,194673.316943
1531,105604.254186
1532,93471.1537514
1533,153828.618276
1534,119441.403673
1535,152590.444815
1536,103900.196327
1537,61365.0713294
1538,150066.409515
1539,201129.298234
1540,87561.711205
1541,140816.326073
1542,147295.487175
1543,189967.164091
1544,85090.5666997
1545,116396.713725
1546,131151.614684
1547,131510.524216
1548,138399.436059
1549,120203.435493
1550,131351.091637
1551,106660.575687
1552,136587.750666
1553,149586.573846
1554,119171.142295
1555,167434.836815
1556,78088.6763992
1557,110099.287407
1558,100874.480861
1559,66657.0797518
1560,123519.069914
1561,125959.801794
1562,128223.448808
1563,120449.850512
1564,160462.256235
1565,146859.575856
1566,245226.907249
1567,76191.0977099
1568,236516.214335
1569,136864.119714
1570,138009.813825
1571,123497.562334
1572,146359.457284
1573,233650.148504
1574,121232.501113
1575,240769.443784
1576,240504.017027
1577,171053.916452
1578,138745.933211
1579,152021.269086
1580,193897.647208
1581,158011.064443
1582,122789.797572
1583,295792.151975
1584,215908.427183
1585,135033.298189
1586,71026.6190997
1587,105028.656768
1588,153555.964197
1589,94849.4715437
1590,132648.078436
1591,97738.6476666
1592,117186.207178
1593,120055.726547
1594,123319.579413
1595,108467.246848
1596,222730.747071
1597,196870.221947
1598,230834.056174
1599,165633.721291
1600,157756.098562
1601,63923.9629002
1602,115364.050396
1603,71010.2178812
1604,271303.903054
1605,237590.620676
1606,168630.240186
1607,176269.065512
1608,214640.452138
1609,176760.189813
1610,156475.605231
1611,139815.835618
1612,172198.694987
1613,167653.117241
1614,124498.970941
1615,93170.1944523
1616,80775.3693271
1617,91580.4315787
1618,130651.202222
1619,139429.543481
1620,152281.304865
1621,135743.215763
1622,142503.827799
1623,257471.756388
1624,212492.957356
1625,115614.507753
1626,168993.454001
1627,194305.985353
1628,273042.385696
1629,176397.217109
1630,360328.431624
1631,232060.623071
1632,246698.139815
1633,169108.822032
1634,183886.64718
1635,173887.925127
1636,148064.512964
1637,201993.13875
1638,182289.064276
1639,183464.477954
1640,247069.978137
1641,183081.597824
1642,243694.223721
1643,217348.098723
1644,235408.063719
1645,211280.540292
1646,158291.227457
1647,155898.5035
1648,128083.188849
1649,140822.530322
1650,113677.418075
1651,121175.795123
1652,99226.0502642
1653,101291.624552
1654,143109.671042
1655,131304.483072
1656,140063.219631
1657,147209.21294
1658,144273.867181
1659,114964.895146
1660,151210.342941
1661,452367.352571
1662,398195.122309
1663,382916.851531
1664,539001.343065
1665,306303.880314
1666,329115.703867
1667,391714.033963
1668,338572.776674
1669,301260.43373
1670,339314.809509
1671,274394.184783
1672,436194.565
1673,292560.152512
1674,242967.181403
1675,202514.595139
1676,201077.209327
1677,228746.739976
1678,478284.303495
1679,402225.806345
1680,330257.291474
1681,247518.157379
1682,320468.299737
1683,190283.832993
1684,175910.512638
1685,170442.10174
1686,165082.66984
1687,169864.655167
1688,186823.865349
1689,192274.786285
1690,195179.597717
1691,184135.688162
1692,255646.118228
1693,169369.053209
1694,182731.11777
1695,163837.332477
1696,273033.689923
1697,170704.233375
1698,345935.249298
1699,309974.040425
1700,257806.368568
1701,275344.168916
1702,246624.115151
1703,243069.955621
1704,283460.218802
1705,238588.569295
1706,448791.62421
1707,207026.713863
1708,203817.392652
1709,261265.582085
1710,220564.679951
1711,269212.3188
1712,250780.080352
1713,279202.120002
1714,227533.617696
1715,206036.798679
1716,183624.304943
1717,174509.149486
1718,135707.440396
1719,210006.976193
1720,224953.664151
1721,160487.842391
1722,123383.609478
1723,154423.550578
1724,195990.484243
1725,233362.793369
1726,183132.267272
1727,149691.625183
1728,168313.288708
1729,165812.014663
1730,155991.699164
1731,116375.497421
1732,125321.150929
1733,110434.890927
1734,120583.883424
1735,118039.354735
1736,103325.189762
1737,298101.725878
1738,266569.690478
1739,236224.720847
1740,227609.537546
1741,192415.380691
1742,169544.305186
1743,174047.561288
1744,347475.492028
1745,212097.244674
1746,178064.388768
1747,215248.10901
1748,218759.102804
1749,139229.862483
1750,126372.567957
1751,246196.531189
1752,113698.301036
1753,152012.245327
1754,195646.38283
1755,166892.115938
1756,127418.668337
1757,119559.377048
1758,147471.977452
1759,164227.794995
1760,157400.004055
1761,147018.075969
1762,175346.122751
1763,187146.816931
1764,113597.373523
1765,169791.97618
1766,193960.371535
1767,230843.860704
1768,143050.081272
1769,169385.705675
1770,152134.18763
1771,116698.917779
1772,135023.316727
1773,121516.683906
1774,144965.201791
1775,139586.0662
1776,127430.292289
1777,104930.108697
1778,140673.6589
1779,126132.389341
1780,180409.193025
1781,125968.91761
1782,85597.7478554
1783,145436.528557
1784,108477.813692
1785,121754.446795
1786,135443.972924
1787,161718.824726
1788,61622.5265254
1789,96209.9994636
1790,78988.0193722
1791,182258.937008
1792,163085.710265
1793,135221.090817
1794,154815.136676
1795,138609.971093
1796,126316.67755
1797,108614.055183
1798,118142.641619
1799,108117.965859
1800,128583.619019
1801,130903.885197
1802,132568.013841
1803,148769.763859
1804,137173.817807
1805,134606.150795
1806,126859.472482
1807,130718.246215
1808,123065.90607
1809,124840.437043
1810,136408.511773
1811,95560.3297877
1812,97863.4500191
1813,132391.28779
1814,93890.3384312
1815,55193.0223953
1816,99062.7961492
1817,107298.529749
1818,149406.736291
1819,131322.323024
1820,53842.4264488
1821,112869.818542
1822,149308.490383
1823,45470.2500059
1824,123304.457325
1825,139399.806769
1826,107604.34757
1827,101109.283082
1828,134156.830725
1829,115034.704967
1830,144835.552967
1831,145426.275666
1832,64706.7354056
1833,141105.934344
1834,119864.753196
1835,122998.689659
1836,125950.727482
1837,83813.2314743
1838,135315.565896
1839,100354.826704
1840,144511.666411
1841,135282.840653
1842,90650.1688468
1843,129896.037428
1844,134933.568462
1845,141875.254765
1846,151895.156979
1847,171035.336426
1848,54087.2739593
1849,108091.399054
1850,116619.192667
1851,157817.028862
1852,122036.165379
1853,123601.4706
1854,160122.531358
1855,151583.26119
1856,223491.408595
1857,136348.784222
1858,132266.700948
1859,114737.887971
1860,142010.813582
1861,114500.631414
1862,304496.358748
1863,284008.749398
1864,284092.67676
1865,336099.305336
1866,321360.815811
1867,218085.6691
1868,289417.479247
1869,202740.683738
1870,216411.421898
1871,246324.077709
1872,172591.605511
1873,249670.500734
1874,152439.438715
1875,201699.422214
1876,202597.467208
1877,211889.865299
1878,199481.647335
1879,128348.922199
1880,128776.933856
1881,245061.905656
1882,242395.457485
1883,184224.548261
1884,207166.916147
1885,232938.843249
1886,286408.146388
1887,211571.980733
1888,261405.401949
1889,172240.522041
1890,115526.194033
1891,135298.264076
1892,97342.37603
1893,135199.040452
1894,126507.868043
1895,138346.597675
1896,125125.377979
1897,115569.664067
1898,115422.513504
1899,163777.869981
1900,155551.497467
1901,167623.88847
1902,163989.33667
1903,216342.101863
1904,137375.470389
1905,204553.883704
1906,136282.658982
1907,217072.519313
1908,109169.194046
1909,126382.710473
1910,118489.213059
1911,224714.896243
1912,337673.740358
1913,139857.819408
1914,59677.1744879
1915,326555.535364
1916,68580.7964164
1917,238926.898856
1918,140423.937608
1919,177667.683
1920,162218.740483
1921,385909.229389
1922,310140.750952
1923,232926.021291
1924,236840.359368
1925,195475.735254
1926,376231.664737
1927,135994.415482
1928,156305.927593
1929,127681.075142
1930,131167.399804
1931,138973.229339
1932,142611.451277
1933,194749.896319
1934,184010.124538
1935,168789.447706
1936,200250.401446
1937,183729.282906
1938,171041.16096
1939,251741.814975
1940,193430.916482
1941,169290.079326
1942,178744.855232
1943,218747.457901
1944,372174.166035
1945,393559.14707
1946,139419.363142
1947,324206.797765
1948,177922.686148
1949,249140.720878
1950,187272.65817
1951,241682.727875
1952,208307.790364
1953,165363.952492
1954,181631.804389
1955,138349.166454
1956,301641.959832
1957,152753.610485
1958,278093.753932
1959,144727.661841
1960,109802.611203
1961,117999.637485
1962,96713.2656917
1963,107480.849302
1964,107939.185954
1965,144287.510224
1966,133926.667793
1967,304100.739755
1968,436357.497759
1969,389769.131337
1970,414424.098531
1971,479927.107019
1972,374159.196389
1973,272423.563664
1974,340129.89398
1975,593502.83092
1976,274420.167005
1977,349990.112855
1978,354429.956192
1979,320942.280746
1980,215636.473137
1981,344180.626877
1982,221153.349874
1983,203803.097198
1984,174416.786232
1985,223590.846363
1986,212791.023961
1987,179869.854127
1988,173441.038208
1989,192050.850807
1990,206729.373237
1991,233430.751802
1992,214751.117556
1993,167041.055018
1994,233730.400584
1995,186823.898112
1996,251071.568385
1997,317961.941854
1998,316620.454517
1999,285644.116102
2000,319705.157304
2001,288151.931286
2002,248848.043561
2003,264163.50538
2004,285142.360705
2005,226910.997427
2006,219133.094822
2007,247102.353192
2008,216118.76529
2009,199770.075946
2010,194464.436517
2011,138656.956359
2012,168850.117765
2013,175664.866552
2014,183039.349738
2015,201631.035182
2016,188846.763263
2017,194529.60372
2018,111265.484299
2019,131642.19361
2020,101588.950541
2021,92717.4280295
2022,191144.215916
2023,143928.382482
2024,275821.054561
2025,356353.853556
2026,177631.8229
2027,160558.559465
2028,150265.485
2029,170567.226796
2030,266206.285523
2031,229617.647861
2032,246761.314224
2033,255600.788063
2034,171593.183678
2035,229745.325865
2036,201570.149653
2037,218975.764375
2038,316806.998114
2039,220710.861149
2040,272425.446375
2041,337285.377686
2042,211267.63112
2043,184362.33895
2044,169349.143855
2045,211205.55177
2046,154568.22485
2047,143730.243873
2048,140260.772219
2049,146924.077906
2050,173492.792134
2051,104424.105967
2052,122787.664952
2053,148789.115699
2054,93480.5879364
2055,153720.930418
2056,149367.347432
2057,108776.870495
2058,213366.602566
2059,132206.264046
2060,181095.797898
2061,175060.924566
2062,129567.930152
2063,119496.830635
2064,140320.075648
2065,113209.405301
2066,161313.144803
2067,100380.842179
2068,148980.728685
2069,87791.0514144
2070,116430.831409
2071,93381.3487337
2072,128420.425342
2073,129216.45866
2074,175736.241236
2075,148036.134438
2076,112976.134045
2077,160609.320857
2078,120858.312461
2079,130437.946056
2080,120167.309032
2081,124798.727588
2082,119766.793358
2083,146433.850702
2084,108882.254672
2085,118160.097325
2086,111652.964012
2087,126767.353647
2088,94007.6307282
2089,78851.3673514
2090,125203.337397
2091,112482.521011
2092,121388.837355
2093,116391.046881
2094,105734.608519
2095,149348.713099
2096,81628.5303245
2097,97570.3272871
2098,143610.481158
2099,53538.0307304
2100,70035.4837336
2101,111630.851186
2102,126559.557818
2103,104764.516124
2104,138165.984727
2105,128205.357777
2106,68908.4320729
2107,189860.983533
2108,116269.755043
2109,113721.907601
2110,129646.723911
2111,137774.589047
2112,134323.369339
2113,123033.442737
2114,127096.375333
2115,167285.033217
2116,115613.496525
2117,154005.805153
2118,122538.38269
2119,119681.074034
2120,113687.772424
2121,93518.4539723
2122,117367.725262
2123,80393.1440294
2124,152182.228579
2125,120751.830494
2126,146708.349655
2127,170358.836209
2128,119976.164989
2129,85176.0164519
2130,136502.033903
2131,143781.124339
2132,114032.668929
2133,124754.095791
2134,117499.837097
2135,96090.4113681
2136,78675.7842465
2137,104291.816465
2138,135782.058554
2139,145934.840202
2140,138362.385951
2141,158027.928958
2142,124924.198777
2143,141220.227028
2144,124310.815183
2145,138945.353005
2146,173773.368794
2147,139762.986056
2148,129826.636335
2149,144194.920028
2150,236616.475484
2151,113446.257079
2152,175486.622067
2153,168727.6976
2154,104521.134389
2155,139729.048056
2156,252447.15557
2157,232061.624037
2158,234274.095543
2159,206907.447311
2160,187749.062347
2161,231866.768516
2162,403718.469705
2163,341336.508764
2164,238380.235594
2165,203870.417752
2166,159213.776343
2167,223843.922624
2168,200762.831404
2169,193995.807262
2170,216143.643679
2171,158265.741498
2172,128830.901246
2173,174491.647944
2174,224651.388682
2175,284637.236264
2176,305926.386649
2177,233502.075117
2178,209364.323112
2179,133944.36376
2180,219574.974748
2181,194779.480276
2182,221580.290667
2183,189782.551064
2184,119279.129058
2185,125628.24842
2186,158493.962939
2187,147407.013985
2188,152693.785808
2189,278621.114129
2190,78501.4239407
2191,80735.6912933
2192,89080.4187762
2193,111708.254573
2194,106334.328669
2195,106014.988421
2196,103306.375007
2197,116310.374576
2198,161663.288368
2199,188122.724367
2200,148098.468703
2201,146175.631407
2202,216417.51196
2203,133579.778516
2204,182897.773074
2205,125393.448156
2206,137298.234165
2207,210568.876784
2208,277430.653358
2209,256481.144008
2210,115876.397162
2211,116856.578476
2212,124964.415443
2213,108045.70365
2214,130783.062289
2215,103331.360032
2216,150762.531493
2217,52535.6762055
2218,78848.8096431
2219,66799.8319722
2220,67732.7791158
2221,311850.802265
2222,291552.151147
2223,276166.98464
2224,203624.643985
2225,119903.895331
2226,190817.782419
2227,194546.480326
2228,266633.296339
2229,262436.263664
2230,155917.077181
2231,212566.845361
2232,181478.497537
2233,181016.736239
2234,239636.261895
2235,222906.514947
2236,258006.580676
2237,311900.931673
2238,190301.136636
2239,102092.50504
2240,156982.502159
2241,155673.969227
2242,119898.728246
2243,127085.440149
2244,105796.714953
2245,100423.301254
2246,143137.450795
2247,115103.231281
2248,120535.347473
2249,116649.747642
2250,128643.998403
2251,109570.236143
2252,181865.841185
2253,154511.132929
2254,175419.293037
2255,186356.268413
2256,169455.063163
2257,206738.889909
2258,155791.743303
2259,176247.127835
2260,139964.177212
2261,193839.425335
2262,214257.414712
2263,382548.569946
2264,546156.568022
2265,167673.553524
2266,308547.502402
2267,377356.397899
2268,430933.287193
2269,149475.346987
2270,194054.228511
2271,215822.804899
2272,196150.216293
2273,158987.062358
2274,179388.186964
2275,157951.629623
2276,187005.201655
2277,187565.390918
2278,146959.326908
2279,124196.266705
2280,118283.182255
2281,161320.437703
2282,181088.823194
2283,109134.489906
2284,115549.377246
2285,144233.712822
2286,124308.252528
2287,369511.219106
2288,277212.305125
2289,381741.738557
2290,464767.083699
2291,328297.503165
2292,447040.03604
2293,492363.238458
2294,403235.357007
2295,491679.020536
2296,312811.174932
2297,353777.319436
2298,350445.434729
2299,352541.852848
2300,331427.470517
2301,317110.411147
2302,259268.747872
2303,245469.959421
2304,255250.045828
2305,211878.29888
2306,202669.193751
2307,209011.292444
2308,236497.604099
2309,288947.923769
2310,218290.420187
2311,212325.385719
2312,182618.198249
2313,172272.652346
2314,179052.841168
2315,184449.308569
2316,196303.116295
2317,191714.33848
2318,180029.621167
2319,183952.395103
2320,184826.071815
2321,233729.356237
2322,177532.679864
2323,194903.997904
2324,178663.699397
2325,221124.040565
2326,175257.458543
2327,199641.048374
2328,219545.958674
2329,194971.912953
2330,185597.58912
2331,348708.136389
2332,387598.562239
2333,321020.626528
2334,261124.882902
2335,282003.042705
2336,312413.376928
2337,204467.735365
2338,271236.997489
2339,218122.196705
2340,398512.187584
2341,226133.879419
2342,241169.938309
2343,235596.947222
2344,220493.844997
2345,240307.803574
2346,213329.638141
2347,200456.533466
2348,242363.467311
2349,181786.325081
2350,313323.456408
2351,263490.529011
2352,250605.858485
2353,242822.152589
2354,141102.217256
2355,142506.796412
2356,151325.233657
2357,186174.134315
2358,200615.566319
2359,134641.395994
2360,110677.031415
2361,152903.989833
2362,268565.211423
2363,131761.92572
2364,148118.165584
2365,215868.741319
2366,188760.330492
2367,221634.503107
2368,215398.349072
2369,219393.854459
2370,168136.832377
2371,162630.968171
2372,193446.075118
2373,284921.172439
2374,331190.759641
2375,245073.351258
2376,296352.938751
2377,346701.397711
2378,147875.130742
2379,205535.061883
2380,149226.327273
2381,173244.038789
2382,211236.451006
2383,202250.853862
2384,241092.397136
2385,161818.989602
2386,130950.319746
2387,129621.432329
2388,103635.093005
2389,114249.308108
2390,146615.643385
2391,142043.153125
2392,114996.709864
2393,167532.72622
2394,144087.2072
2395,208137.024457
2396,138970.819424
2397,232826.577068
2398,125158.896923
2399,66318.835356
2400,62361.5297218
2401,122786.603865
2402,135958.164109
2403,148007.930415
2404,152215.432369
2405,160082.927732
2406,138853.343906
2407,123231.12789
2408,148151.995252
2409,119951.525628
2410,170913.764801
2411,112087.805091
2412,154882.701318
2413,128712.887166
2414,165810.927555
2415,135793.79209
2416,124338.975181
2417,134467.918198
2418,134163.683877
2419,129282.083717
2420,118255.951703
2421,124362.888995
2422,106684.536808
2423,118150.170799
2424,156553.722179
2425,181731.379905
2426,127993.41686
2427,128266.785335
2428,175245.483471
2429,109656.101183
2430,131132.059921
2431,106858.735467
2432,148508.070766
2433,141240.166631
2434,137929.338402
2435,151835.801116
2436,108588.12764
2437,103465.790229
2438,118863.330282
2439,102746.876315
2440,120501.634094
2441,90537.7187967
2442,96876.4483137
2443,130453.881211
2444,134477.229875
2445,89692.7897202
2446,140911.168156
2447,182230.278745
2448,125268.57919
2449,111491.366755
2450,150483.077895
2451,121647.371636
2452,192512.660658
2453,94120.8372029
2454,123812.335266
2455,106724.643641
2456,137859.537055
2457,137737.541897
2458,131359.218586
2459,113233.898968
2460,138009.962021
2461,133194.175478
2462,136744.858598
2463,124735.994382
2464,183588.649252
2465,137351.016126
2466,111699.094314
2467,124394.952479
2468,83040.48178
2469,83449.549019
2470,193552.795836
2471,229199.679811
2472,163411.903824
2473,116230.1077
2474,56747.1173572
2475,217325.583953
2476,117693.810667
2477,127973.569135
2478,152624.862508
2479,105337.733731
2480,153445.986422
2481,118567.556932
2482,120282.943841
2483,106164.184462
2484,119072.810074
2485,125693.321056
2486,148964.015457
2487,157865.906435
2488,161846.022023
2489,147963.816296
2490,135638.763545
2491,92349.1685184
2492,193879.498665
2493,159993.675405
2494,141947.91978
2495,90349.4275186
2496,231999.951129
2497,156609.270409
2498,107632.173084
2499,85321.1149947
2500,128028.871951
2501,142059.028376
2502,143633.340997
2503,96531.3429516
2504,146775.428444
2505,225448.169423
2506,243999.013635
2507,278049.774776
2508,244687.678645
2509,215645.055869
2510,213438.68104
2511,173233.963168
2512,208201.970438
2513,222481.999414
2514,257992.679819
2515,150344.706838
2516,178638.159008
2517,151009.534079
2518,158369.413596
2519,233650.029275
2520,215040.744494
2521,186103.625082
2522,224928.899514
2523,115305.850296
2524,134432.241202
2525,157593.927436
2526,137445.822979
2527,118106.326143
2528,126607.687758
2529,132601.927832
2530,126203.035724
2531,259213.050116
2532,226389.024315
2533,191718.869227
2534,234845.800666
2535,291660.672586
2536,233945.502205
2537,240529.108964
2538,183510.459576
2539,183226.028733
2540,177960.891269
2541,180336.602921
2542,164367.142551
2543,118448.053323
2544,122411.04216
2545,134699.318048
2546,123549.28898
2547,133899.108004
2548,149845.254271
2549,160599.589853
2550,946209.933512
2551,144552.275687
2552,130433.114092
2553,72684.3320757
2554,90332.1231912
2555,117257.225922
2556,97733.7392239
2557,104506.897544
2558,133100.402601
2559,143430.92153
2560,153790.282829
2561,146570.813785
2562,146091.413745
2563,153976.494671
2564,207251.021358
2565,141389.892809
2566,163515.311344
2567,139826.423398
2568,201087.354307
2569,232015.165068
2570,113736.320175
2571,203332.907745
2572,150874.016755
2573,227464.679708
2574,311363.896192
2575,132675.489791
2576,122144.894624
2577,129739.324723
2578,82293.6389027
2579,59201.3089883
2580,88188.2192887
2581,103428.246045
2582,105830.933202
2583,294862.777296
2584,184179.648848
2585,184925.225968
2586,227051.98656
2587,202290.33026
2588,146618.604275
2589,148380.510684
2590,199918.453977
2591,231144.31312
2592,214365.34143
2593,242774.955331
2594,184140.551089
2595,193768.947101
2596,288420.491553
2597,183208.887583
2598,287180.442829
2599,331299.848277
2600,124801.611105
2601,142197.362795
2602,84650.1227878
2603,93737.7379122
2604,91369.2487654
2605,80513.3100426
2606,140847.304541
2607,203859.431217
2608,188428.978227
2609,171831.055692
2610,106335.488436
2611,129097.186531
2612,159722.552697
2613,130275.998962
2614,121511.706654
2615,157354.303043
2616,142731.380717
2617,187939.887406
2618,202556.231019
2619,201624.24735
2620,190820.756089
2621,174035.364321
2622,184301.857928
2623,234482.259317
2624,300507.136228
2625,298756.898026
2626,170666.747803
2627,165251.792943
2628,497903.335611
2629,502193.745174
2630,375103.083182
2631,501798.130392
2632,407546.724793
2633,313366.758476
2634,438425.939771
2635,152038.780394
2636,174465.139291
2637,177211.735808
2638,265899.966241
2639,182982.050872
2640,148996.531396
2641,104677.002949
2642,185858.334279
2643,106215.055964
2644,117251.892106
2645,112585.128961
2646,96699.0325449
2647,106034.054371
2648,145160.522297
2649,153899.278143
2650,136744.160821
2651,139504.201428
2652,419047.462938
2653,257743.250199
2654,263329.466197
2655,413732.008715
2656,323049.009252
2657,364077.611249
2658,312554.321291
2659,306751.801881
2660,364566.954581
2661,353672.38047
2662,370113.400136
2663,298803.000724
2664,274594.391079
2665,326141.702746
2666,285286.957605
2667,170160.305599
2668,179162.372273
2669,185873.797098
2670,278288.985377
2671,184491.790117
2672,191767.580789
2673,202676.853106
2674,197232.439679
2675,173777.430713
2676,191236.144229
2677,202819.158685
2678,240082.350984
2679,273006.576708
2680,292247.933049
2681,394905.036849
2682,317297.607451
2683,510156.813921
2684,315229.563391
2685,322970.811244
2686,254910.777642
2687,318930.200819
2688,223063.204472
2689,207013.766697
2690,431399.949914
2691,191011.51176
2692,138896.067583
2693,198395.469251
2694,136396.341957
2695,192530.344769
2696,181221.037806
2697,187862.94283
2698,183375.900084
2699,173169.811
2700,155825.517836
2701,145955.221524
2702,109887.36929
2703,120275.793496
2704,139221.107826
2705,112848.00869
2706,103970.661866
2707,116865.60084
2708,130994.655005
2709,103692.171872
2710,123749.289386
2711,290468.396937
2712,382871.78733
2713,172642.457266
2714,149999.478445
2715,169424.374812
2716,143715.518083
2717,198029.444944
2718,217190.989495
2719,157422.940511
2720,176965.76231
2721,131648.337167
2722,160887.6385
2723,135166.602857
2724,124989.0364
2725,128802.876912
2726,151987.89868
2727,176265.908277
2728,182152.768022
2729,147938.089334
2730,153768.644477
2731,128697.740936
2732,134416.6812
2733,161897.04603
2734,144768.531795
2735,141797.386684
2736,143787.9692
2737,118434.195865
2738,137776.382921
2739,156630.798436
2740,135763.569477
2741,143051.516106
2742,152586.111412
2743,157417.880137
2744,160896.874179
2745,140744.993797
2746,137521.531801
2747,146448.513292
2748,126576.921999
2749,128175.998044
2750,130045.602228
2751,134179.247549
2752,189606.738759
2753,149256.440588
2754,205430.187164
2755,133832.304814
2756,94153.0048314
2757,66869.6374654
2758,86136.6460284
2759,164363.614876
2760,119582.06094
2761,141082.737607
2762,144644.717063
2763,179317.121734
2764,149829.031735
2765,289795.236396
2766,125771.186831
2767,88029.4797181
2768,127604.632054
2769,131731.653443
2770,135040.161615
2771,101433.649521
2772,111499.834754
2773,170566.49406
2774,152304.58362
2775,112237.702883
2776,139072.365163
2777,160801.129687
2778,104921.043651
2779,116952.969306
2780,96952.5740241
2781,99095.2142875
2782,97083.1791358
2783,101312.72331
2784,124826.697704
2785,134539.403197
2786,65900.5522137
2787,128054.490889
2788,76009.8133027
2789,163655.731399
2790,94168.1220653
2791,113591.968487
2792,61715.8193039
2793,150423.224658
2794,97374.8610916
2795,123044.722485
2796,97757.0192343
2797,219666.070573
2798,104241.180822
2799,118153.112602
2800,69254.0827717
2801,102652.392976
2802,126422.770655
2803,168601.731328
2804,130467.501461
2805,101779.944745
2806,81464.8155446
2807,172806.109557
2808,143076.972467
2809,130774.101195
2810,123878.095758
2811,159491.849916
2812,161768.937091
2813,155449.057414
2814,158637.457467
2815,93740.2508464
2816,232281.835157
2817,157981.460609
2818,130140.129168
2819,174657.412216
2820,139965.937412
2821,99331.4716497
2822,184307.869187
2823,337335.816372
2824,179719.417402
2825,152561.138277
2826,135536.839399
2827,136644.564632
2828,219319.884788
2829,215519.246546
2830,229949.153883
2831,167350.252766
2832,256396.430589
2833,298813.976117
2834,227449.842485
2835,221815.119201
2836,189855.78798
2837,160286.940337
2838,154374.664289
2839,174416.406283
2840,207786.302091
2841,203411.844099
2842,233428.069278
2843,148721.977566
2844,173099.362843
2845,126557.744358
2846,206750.700897
2847,207993.756522
2848,222487.751603
2849,198293.698142
2850,271183.710396
2851,213699.439681
2852,239592.538825
2853,235992.954809
2854,136804.733987
2855,202018.428215
2856,200126.870901
2857,186548.918315
2858,204093.939753
2859,110459.958491
2860,139195.201432
2861,130094.630181
2862,192988.03762
2863,127074.470107
2864,249265.267902
2865,143834.872568
2866,143872.307906
2867,105597.256374
2868,97500.1667554
2869,99857.5875385
2870,119939.672807
2871,82430.8317647
2872,53750.5715518
2873,96151.1904496
2874,141408.629564
2875,118151.756952
2876,167881.607878
2877,151741.205337
2878,171328.893657
2879,140894.345379
2880,104713.970055
2881,147236.292108
2882,179089.766199
2883,194504.032238
2884,193074.261695
2885,189343.896781
2886,250380.257413
2887,95489.9011491
2888,143609.181685
2889,60464.1077109
2890,79419.3869158
2891,140683.277525
2892,46003.2989916
2893,74622.7278245
2894,55580.5737153
2895,346180.6617
2896,291765.418122
2897,210447.409586
2898,144088.844708
2899,207000.778245
2900,162529.472474
2901,211977.968898
2902,186598.902066
2903,317888.964714
2904,344578.895877
2905,87146.7913021
2906,192130.316945
2907,110497.751428
2908,127912.44872
2909,147441.164108
2910,77706.7906078
2911,82700.9709555
2912,148229.286883
2913,80910.4731573
2914,80538.5972596
2915,90500.1551726
2916,81907.536191
2917,173904.517554
2918,117737.530256
2919,217329.771496
